…
``` r
fargo_df %>% 
  arrange(desc(rating))
```

    ## # A tibble: 564 x 3
    ##    player          rating raw_rating
    ##    <chr>            <dbl>      <dbl>
    ##  1 Mike Maxwell      738.      2164.
    ##  2 Hector Ortega     736.      2125.
    ##  3 Alvin Ho          714.      1826.
    ##  4 Nick Lansdown     694.      1593.
    ##  5 Ryan Piaget       691.      1562.
    ##  6 Diogo Martini     689.      1541.
    ##  7 Evan Burgess      689.      1536.
    ##  8 Bob Simon         688.      1524.
    ##  9 Rhys Hughes       686.      1509.
    ## 10 Thayer McDougle   686.      1506.
    ## # … with 554 more rows
…
