…
``` r
fargo_df %>% 
  arrange(desc(rating))
```

    ## # A tibble: 572 x 3
    ##    player          rating raw_rating
    ##    <chr>            <dbl>      <dbl>
    ##  1 Hector Ortega     738.      2156.
    ##  2 Mike Maxwell      738.      2156.
    ##  3 Alvin Ho          719.      1891.
    ##  4 Diogo Martini     694.      1596.
    ##  5 Nick Lansdown     694.      1596.
    ##  6 Ryan Piaget       689.      1534.
    ##  7 Evan Burgess      688.      1531.
    ##  8 Rhys Hughes       686.      1509.
    ##  9 Thayer McDougle   686.      1502.
    ## 10 Bobby Yulo        684.      1488.
    ## # … with 562 more rows
…
