…
``` r
fargo_df %>% 
  arrange(desc(rating))
```

    ## # A tibble: 548 x 3
    ##    player          rating raw_rating
    ##    <chr>            <dbl>      <dbl>
    ##  1 Mike Maxwell      737.      2140.
    ##  2 Hector Ortega     729.      2030.
    ##  3 Alvin Ho          702.      1681.
    ##  4 Evan Burgess      697.      1628.
    ##  5 Nick Lansdown     694.      1591.
    ##  6 Ryan Piaget       694.      1588.
    ##  7 Skip Perry        690.      1549.
    ##  8 Bob Simon         689.      1541.
    ##  9 Thayer McDougle   687.      1513.
    ## 10 Rhys Hughes       685.      1497.
    ## # … with 538 more rows
…
