…
elo_ratings %>% 
  mutate(rating = round(rating)) %>% 
  arrange(-rating) %>% 
  append_team_names()
```

    ## # A tibble: 327 x 3
    ##    player          rating team                      
    ##    <chr>            <dbl> <chr>                     
    ##  1 Skip Perry        1803 Tandy Tokers              
    ##  2 Hector Ortega     1789 <NA>                      
    ##  3 Ryan Piaget       1770 Clean Slate               
    ##  4 Mike Maxwell      1760 Route 101 Rawhides        
    ##  5 Wyatt Moss        1724 Naked Lunch Nice Rack     
    ##  6 Evan Burgess      1710 Lucky Horseshoe Caballeros
    ##  7 Tom Seymour       1698 Route 101 Rawhides        
    ##  8 Andy Luong        1697 <NA>                      
    ##  9 Rhys Hughes       1696 Golden Slate Warriors     
    ## 10 Thayer McDougle   1690 Lucky Horseshoe Caballeros
    ## # … with 317 more rows
…
ratings_changes
```

    ## # A tibble: 211 x 6
    ## # Groups:   player [211]
    ##    player         initial final  diff new_old    team                    
    ##    <chr>            <dbl> <dbl> <dbl> <chr>      <chr>                   
    ##  1 Jon Williams     1500  1614. 114.  New player Cafe Ballbusters        
    ##  2 Tae Yim          1500  1609. 109.  New player Cafe 2 for 1's          
    ##  3 Erik Proctor     1377. 1473.  95.4 Old player Cafe Cafaholics         
    ##  4 Troy Brunet      1361. 1453.  91.8 Old player Hole in the Wall Bangers
    ##  5 Darrell Haslip   1570. 1657.  87.0 Old player Smoke & Rumors          
    ##  6 Justin Taylor    1508. 1594.  85.6 Old player Mixfits                 
    ##  7 Rene Denis       1564. 1649.  84.7 Old player Smoke & Rumors          
    ##  8 Jason Rogers     1511. 1591.  79.9 Old player Clean Slate             
    ##  9 Bob Rice         1500  1573.  72.8 New player Cafe Cafaholics         
    ## 10 David Norris     1452. 1521.  68.9 Old player House of Ginger         
    ## # … with 201 more rows
…
