…
``` r
fargo_df %>% 
  arrange(desc(rating))
```

    ## # A tibble: 423 x 3
    ##    player           rating raw_rating
    ##    <chr>             <dbl>      <dbl>
    ##  1 Hector Ortega      729.      2011.
    ##  2 Mike Maxwell       727.      1981.
    ##  3 Evan Burgess       698.      1628.
    ##  4 Skip Perry         697.      1608.
    ##  5 Ryan Piaget        695.      1585.
    ##  6 Bob Simon          689.      1530.
    ##  7 Michael Gonzales   684.      1470.
    ##  8 Nick Lansdown      683.      1462.
    ##  9 Rhys Hughes        681.      1446.
    ## 10 Nick Callado       681.      1438.
    ## # … with 413 more rows
…
