SFPA Player Ratings, v.1 - Gibbs Sampling
================
Skip Perry
April 2019

``` r
results_no_forfeits
```

    ## # A tibble: 11,333 x 9
    ##    season match_date week_number home_team away_team game_num home  away 
    ##    <chr>  <date>           <dbl> <chr>     <chr>        <dbl> <chr> <chr>
    ##  1 Sprin… 2018-02-06           1 Cinch Pa… Cinch Ph…        1 Bob … Thom…
    ##  2 Sprin… 2018-02-06           1 Cinch Pa… Cinch Ph…        2 Rob … Mark…
    ##  3 Sprin… 2018-02-06           1 Cinch Pa… Cinch Ph…        3 Este… Rick…
    ##  4 Sprin… 2018-02-06           1 Cinch Pa… Cinch Ph…        4 Ben … Fran…
    ##  5 Sprin… 2018-02-06           1 Cinch Pa… Cinch Ph…        5 Rob … Thom…
    ##  6 Sprin… 2018-02-06           1 Cinch Pa… Cinch Ph…        6 Bob … Mark…
    ##  7 Sprin… 2018-02-06           1 Cinch Pa… Cinch Ph…        7 Este… Isaa…
    ##  8 Sprin… 2018-02-06           1 Cinch Pa… Cinch Ph…        8 Rob … Rick…
    ##  9 Sprin… 2018-02-06           1 Cinch Pa… Cinch Ph…        9 Ben … Paul…
    ## 10 Sprin… 2018-02-06           1 Cinch Pa… Cinch Ph…       10 Bob … Isaa…
    ## # … with 11,323 more rows, and 1 more variable: game_winner <chr>
…
  if (!("wins" %in% colnames(df))) { df <- df %>% mutate(wins = 0) }
  if (!("losses" %in% colnames(df))) { df <- df %>% mutate(losses = 0) }
  
  df %>% 
    transmute(player, opponent, wins, losses, games_vs)
}  
```

``` r
player_win_loss_vs_opponents(player_of_interest = "Mike Maxwell")
```

    ## # A tibble: 82 x 5
    ##    player       opponent          wins losses games_vs
    ##    <chr>        <chr>            <dbl>  <dbl>    <dbl>
    ##  1 Mike Maxwell Aja Cayetano       0.6    0        0.6
    ##  2 Mike Maxwell Alan Lowe          0.8    0        0.8
    ##  3 Mike Maxwell Ana Stewart        0.6    0        0.6
    ##  4 Mike Maxwell Andrew Creech      3.2    0        3.2
    ##  5 Mike Maxwell Anthony Hydron     0.8    0        0.8
    ##  6 Mike Maxwell Ben Green          0.8    1.6      2.4
    ##  7 Mike Maxwell Bob Schnatterly    1      0        1  
    ##  8 Mike Maxwell Bob Simon          0.6    0.6      1.2
    ##  9 Mike Maxwell Brendan Kendrick   0.6    0.6      1.2
    ## 10 Mike Maxwell Casey O'Neill      0.6    0        0.6
    ## # … with 72 more rows

``` r
full_win_loss_summary <- 
  map_dfr(player_list, player_win_loss_vs_opponents)
```

``` r
full_win_loss_summary
```

    ## # A tibble: 18,194 x 5
    ##    player          opponent          wins losses games_vs
    ##    <chr>           <chr>            <dbl>  <dbl>    <dbl>
    ##  1 Aaron Woodworth Andrew Keller      0.6    0        0.6
    ##  2 Aaron Woodworth Andy Cunningham    1.2    0.6      1.8
    ##  3 Aaron Woodworth Arthur Patterson   0      0.6      0.6
    ##  4 Aaron Woodworth Brian Bolitho      0.6    0        0.6
    ##  5 Aaron Woodworth Buddy Jacques      1.2    0        1.2
    ##  6 Aaron Woodworth Chris Grimm        0.6    0        0.6
    ##  7 Aaron Woodworth Chris Peterson     0      0.6      0.6
    ##  8 Aaron Woodworth CJ Simmons         0      0.6      0.6
    ##  9 Aaron Woodworth Dan Sorge          0      0.6      0.6
    ## 10 Aaron Woodworth Dave Ward          0      0.6      0.6
    ## # … with 18,184 more rows
…
